Exam_2020/2e/counter_tb.vcd
$date
	Thu Apr 11 11:41:05 2024
$end
$version
	Icarus Verilog
$end
$timescale
	1ps
$end
$scope module counter_tb $end
$var wire 1 ! tS_ref $end
$var wire 1 " tS $end
$var wire 1 # tL_ref $end
$var wire 1 $ tL $end
$var reg 1 % clk $end
$var reg 1 & reset $end
$var reg 1 ' trL $end
$var reg 1 ( trS $end
$scope module counter_ref_inst $end
$var wire 1 % clk $end
$var wire 1 & reset $end
$var wire 1 # tL $end
$var wire 1 ! tS $end
$var wire 1 ' trL $end
$var wire 1 ( trS $end
$var parameter 32 ) COUNTING $end
$var parameter 32 * IDLE $end
$var parameter 32 + lvalue $end
$var parameter 32 , svalue $end
$var reg 1 - outL $end
$var reg 1 . outL_next $end
$var reg 1 / outS $end
$var reg 1 0 outS_next $end
$var reg 1 1 stateL $end
$var reg 1 2 stateL_next $end
$var reg 1 3 stateS $end
$var reg 1 4 stateS_next $end
$var reg 32 5 timerL [31:0] $end
$var reg 32 6 timerL_next [31:0] $end
$var reg 32 7 timerS [31:0] $end
$var reg 32 8 timerS_next [31:0] $end
$upscope $end
$scope module timer_ref_inst $end
$var wire 1 % clk $end
$var wire 1 & reset $end
$var wire 1 ' trL $end
$var wire 1 ( trS $end
$var wire 1 " tS $end
$var wire 1 $ tL $end
$var parameter 10 9 lvalue $end
$var parameter 10 : svalue $end
$var reg 10 ; countL [9:0] $end
$var reg 10 < countS [9:0] $end
$var reg 1 = trackL $end
$var reg 1 > trackS $end
$upscope $end
$upscope $end
$enddefinitions $end
$comment Show the parameter values. $end
$dumpall
b10 :
b100 9
b100 ,
b10 +
b0 *
b1 )
$end
#0
$dumpvars
x>
x=
bx <
bx ;
bx 8
bx 7
bx 6
bx 5
x4
x3
x2
x1
x0
x/
x.
x-
0(
0'
0&
0%
x$
x#
x"
x!
$end
#10000
00
0.
04
02
b0 8
b0 6
0!
0/
0#
0-
03
01
b0 7
b0 5
0"
b0 <
0$
b0 ;
0>
0=
1&
1%
#20000
0%
#30000
1%
#40000
0%
#50000
1%
1(
1'
0&
#60000
0%
#70000
1%
0(
0'
#80000
0%
#90000
1%
#100000
0%
#110000
1%
#120000
0%
#130000
1%
#140000
0%
#150000
1%
#160000
0%
#170000
1%
#180000
0%
#190000
1%
1&
#200000
0%
#210000
1%
#220000
0%
#230000
b1 6
1=
11
12
1%
1'
0&
#240000
0%
#250000
1.
02
b1 5
b1 ;
b0 6
1%
0'
#260000
0%
#270000
0.
b10 ;
1#
1-
01
b0 5
1%
#280000
0%
#290000
0#
0-
b11 ;
1%
#300000
0%
#310000
1$
b100 ;
1%
#320000
0%
#330000
0$
b0 ;
0=
1%
#340000
0%
#350000
1%
#360000
0%
#370000
1%
1&
#380000
0%
#390000
1%
#400000
0%
#410000
b1 8
13
1>
14
1%
1(
0&
#420000
0%
#430000
b1 <
b1 7
b10 8
1%
0(
#440000
0%
#450000
b11 8
b10 7
1"
b10 <
1%
#460000
0%
#470000
10
b0 8
04
0"
b0 <
0>
b11 7
1%
#480000
0%
#490000
00
1!
1/
03
b0 7
1%
#500000
0%
#510000
0!
0/
1%
#520000
0%
#530000
1%
#540000
0%
#550000
1%
1&
#560000
0%
#570000
1%
#580000
0%
#590000
b1 6
1=
11
12
1%
1'
0&
#600000
0%
#610000
b1 8
1.
02
13
b1 5
b1 ;
1>
14
b0 6
1%
1(
0'
#620000
0%
#630000
b10 ;
b1 <
1#
1-
01
b1 7
b0 5
0.
02
b10 8
b0 6
1%
0(
#640000
0%
#650000
b11 8
0#
0-
b10 7
b11 ;
1"
b10 <
1%
#660000
0%
#670000
10
b0 8
04
1$
b100 ;
0"
b0 <
0>
b11 7
1%
#680000
0%
#690000
00
1!
1/
03
b0 7
0$
b0 ;
0=
1%
#700000
0%
#710000
0!
0/
1%
